vassal = {
	first = S28
	second = S31
	start_date = 1438.1.1
	end_date = 1500.1.1
}

royal_marriage = {
	first = S28
	second = S31
	start_date = 1438.1.1
	end_date = 1500.1.1
}

vassal = {
	first = S27
	second = S32
	start_date = 1438.1.1
	end_date = 1500.1.1
}